{
    "_links": {
        "self": {
            "href": "http:\/\/default\/node\/16?_format=hal_json"
        },
        "type": {
            "href": "http:\/\/drupal.org\/rest\/type\/node\/service"
        },
        "http:\/\/drupal.org\/rest\/relation\/node\/service\/uid": [
            {
                "href": "http:\/\/default\/user\/0?_format=hal_json",
                "lang": "en"
            }
        ],
        "http:\/\/drupal.org\/rest\/relation\/node\/service\/revision_uid": [
            {
                "href": "http:\/\/default\/user\/0?_format=hal_json"
            }
        ]
    },
    "nid": [
        {
            "value": "16"
        }
    ],
    "uuid": [
        {
            "value": "4ee15034-6c46-41e4-9c94-36bc3a454b06"
        }
    ],
    "vid": [
        {
            "value": "16"
        }
    ],
    "langcode": [
        {
            "value": "en",
            "lang": "en"
        }
    ],
    "type": [
        {
            "target_id": "service"
        }
    ],
    "title": [
        {
            "value": "Free Shipping",
            "lang": "en"
        }
    ],
    "_embedded": {
        "http:\/\/drupal.org\/rest\/relation\/node\/service\/uid": [
            {
                "_links": {
                    "self": {
                        "href": "http:\/\/default\/user\/0?_format=hal_json"
                    },
                    "type": {
                        "href": "http:\/\/drupal.org\/rest\/type\/user\/user"
                    }
                },
                "uuid": [
                    {
                        "value": "87927e24-2491-42ba-be67-c07c36de9020"
                    }
                ],
                "lang": "en"
            }
        ],
        "http:\/\/drupal.org\/rest\/relation\/node\/service\/revision_uid": [
            {
                "_links": {
                    "self": {
                        "href": "http:\/\/default\/user\/0?_format=hal_json"
                    },
                    "type": {
                        "href": "http:\/\/drupal.org\/rest\/type\/user\/user"
                    }
                },
                "uuid": [
                    {
                        "value": "87927e24-2491-42ba-be67-c07c36de9020"
                    }
                ]
            }
        ]
    },
    "status": [
        {
            "value": "1",
            "lang": "en"
        }
    ],
    "created": [
        {
            "value": "1493928732",
            "lang": "en"
        }
    ],
    "changed": [
        {
            "value": "1495105260",
            "lang": "en"
        }
    ],
    "promote": [
        {
            "value": "0",
            "lang": "en"
        }
    ],
    "sticky": [
        {
            "value": "0",
            "lang": "en"
        }
    ],
    "revision_timestamp": [
        {
            "value": "1493928787"
        }
    ],
    "revision_translation_affected": [
        {
            "value": "1",
            "lang": "en"
        }
    ],
    "default_langcode": [
        {
            "value": "1",
            "lang": "en"
        }
    ],
    "body": [
        {
            "value": "<p>Express delivery within 3 days.<\/p>\r\n",
            "format": "basic_html",
            "summary": "",
            "lang": "en"
        }
    ],
    "field_awesome_icon_class": [
        {
            "value": "fa fa-truck"
        }
    ]
}
